00011,00228, ”Róbat R-3-3”
03019,03286, ”Mise Róbat R-3-3,”
03296,03561, “Thig liom siúl is thig liom rith,”
03569,03838, “Freagróidh mé duit ceist ar bith,”
03854,04116, “Thig liom cuntas suas go fiche.”
05252,05523, “Mise Róbat R-3-3,”
05526,05788, “I mo cheann tá ríomhairí,”
05804,10074, “Faoi mo chosa rothaí buí,”
10080,10345, “In mo bholg: ceallraí.”
11486,11762, “Soilse dearga, mo dhá shúil,”
11766,12017, “Cnaipí glasa ar mo chúl,”
12020,12297, “Is maith liom litriú a-b-c,”
12318,12574, “Obair baile? Fadhb ar bith!”
13676,13982, “Chan fhacthas riamh róbat mar mé,”
13989,14251, “Ocras orm i rith an lae “
14251,14534, “Ar maidin agus ag am tae,”
14550,14812, “Boltaí agus ola te.”
